\relax 
\providecommand\hyper@newdestlabel[2]{}
\providecommand\HyperFirstAtBeginDocument{\AtBeginDocument}
\HyperFirstAtBeginDocument{\ifx\hyper@anchor\@undefined
\global\let\oldcontentsline\contentsline
\gdef\contentsline#1#2#3#4{\oldcontentsline{#1}{#2}{#3}}
\global\let\oldnewlabel\newlabel
\gdef\newlabel#1#2{\newlabelxx{#1}#2}
\gdef\newlabelxx#1#2#3#4#5#6{\oldnewlabel{#1}{{#2}{#3}}}
\AtEndDocument{\ifx\hyper@anchor\@undefined
\let\contentsline\oldcontentsline
\let\newlabel\oldnewlabel
\fi}
\fi}
\global\let\hyper@last\relax 
\gdef\HyperFirstAtBeginDocument#1{#1}
\providecommand\HyField@AuxAddToFields[1]{}
\providecommand\HyField@AuxAddToCoFields[2]{}
\select@language{english}
\@writefile{toc}{\select@language{english}}
\@writefile{lof}{\select@language{english}}
\@writefile{lot}{\select@language{english}}
\newlabel{index::doc}{{}{1}{}{section*.2}{}}
\@writefile{toc}{\contentsline {chapter}{\numberline {1}Tutorials}{3}{chapter.1}}
\@writefile{lof}{\addvspace {10\p@ }}
\@writefile{lot}{\addvspace {10\p@ }}
\newlabel{index:tutorials}{{1}{3}{Tutorials}{chapter.1}{}}
\newlabel{index:wombat-documentation}{{1}{3}{Tutorials}{chapter.1}{}}
\@writefile{toc}{\contentsline {section}{\numberline {1.1}A first example : 2D truss structure}{3}{section.1.1}}
\newlabel{tuto_truss:a-first-example-2d-truss-structure}{{1.1}{3}{A first example : 2D truss structure}{section.1.1}{}}
\newlabel{tuto_truss::doc}{{1.1}{3}{A first example : 2D truss structure}{section.1.1}{}}
\@writefile{toc}{\contentsline {subsection}{\numberline {1.1.1}Defining nodes and elements}{4}{subsection.1.1.1}}
\newlabel{tuto_truss:defining-nodes-and-elements}{{1.1.1}{4}{Defining nodes and elements}{subsection.1.1.1}{}}
\newlabel{tuto_truss:sec-nodes-elem}{{1.1.1}{4}{Defining nodes and elements}{subsection.1.1.1}{}}
\@writefile{toc}{\contentsline {subsubsection}{Defining nodes}{4}{subsubsection*.3}}
\newlabel{tuto_truss:defining-nodes}{{1.1.1}{4}{Defining nodes}{subsubsection*.3}{}}
\@writefile{toc}{\contentsline {subsubsection}{Defining elements}{4}{subsubsection*.4}}
\newlabel{tuto_truss:defining-elements}{{1.1.1}{4}{Defining elements}{subsubsection*.4}{}}
\@writefile{toc}{\contentsline {subsection}{\numberline {1.1.2}Building a mesh and assigning material and section properties to a model}{4}{subsection.1.1.2}}
\newlabel{tuto_truss:building-a-mesh-and-assigning-material-and-section-properties-to-a-model}{{1.1.2}{4}{Building a mesh and assigning material and section properties to a model}{subsection.1.1.2}{}}
\newlabel{tuto_truss:sec-mesh-model}{{1.1.2}{4}{Building a mesh and assigning material and section properties to a model}{subsection.1.1.2}{}}
\@writefile{toc}{\contentsline {subsubsection}{Building a mesh}{4}{subsubsection*.5}}
\newlabel{tuto_truss:building-a-mesh}{{1.1.2}{4}{Building a mesh}{subsubsection*.5}{}}
\@writefile{toc}{\contentsline {subsubsection}{Material properties}{4}{subsubsection*.6}}
\newlabel{tuto_truss:material-properties}{{1.1.2}{4}{Material properties}{subsubsection*.6}{}}
\@writefile{toc}{\contentsline {subsubsection}{Cross-section properties}{4}{subsubsection*.7}}
\newlabel{tuto_truss:cross-section-properties}{{1.1.2}{4}{Cross-section properties}{subsubsection*.7}{}}
\@writefile{toc}{\contentsline {subsubsection}{Defining a model and assigning properties}{5}{subsubsection*.8}}
\newlabel{tuto_truss:defining-a-model-and-assigning-properties}{{1.1.2}{5}{Defining a model and assigning properties}{subsubsection*.8}{}}
\@writefile{toc}{\contentsline {subsection}{\numberline {1.1.3}Defining boundary and loading conditions}{5}{subsection.1.1.3}}
\newlabel{tuto_truss:sec-bcs-loading}{{1.1.3}{5}{Defining boundary and loading conditions}{subsection.1.1.3}{}}
\newlabel{tuto_truss:defining-boundary-and-loading-conditions}{{1.1.3}{5}{Defining boundary and loading conditions}{subsection.1.1.3}{}}
\@writefile{toc}{\contentsline {subsubsection}{Boundary conditions}{5}{subsubsection*.9}}
\newlabel{tuto_truss:boundary-conditions}{{1.1.3}{5}{Boundary conditions}{subsubsection*.9}{}}
\@writefile{toc}{\contentsline {subsubsection}{Loading conditions}{6}{subsubsection*.10}}
\newlabel{tuto_truss:loading-conditions}{{1.1.3}{6}{Loading conditions}{subsubsection*.10}{}}
\@writefile{toc}{\contentsline {subsection}{\numberline {1.1.4}Assembly step and resolution of associated linear system}{6}{subsection.1.1.4}}
\newlabel{tuto_truss:sec-assembly}{{1.1.4}{6}{Assembly step and resolution of associated linear system}{subsection.1.1.4}{}}
\newlabel{tuto_truss:assembly-step-and-resolution-of-associated-linear-system}{{1.1.4}{6}{Assembly step and resolution of associated linear system}{subsection.1.1.4}{}}
\@writefile{toc}{\contentsline {subsubsection}{Assembling the stiffness matrix}{6}{subsubsection*.11}}
\newlabel{tuto_truss:assembling-the-stiffness-matrix}{{1.1.4}{6}{Assembling the stiffness matrix}{subsubsection*.11}{}}
\@writefile{toc}{\contentsline {subsubsection}{Assembling the external force vector}{6}{subsubsection*.12}}
\newlabel{tuto_truss:assembling-the-external-force-vector}{{1.1.4}{6}{Assembling the external force vector}{subsubsection*.12}{}}
\@writefile{toc}{\contentsline {subsubsection}{Assembling the connection matrix and imposed displacement vector}{6}{subsubsection*.13}}
\newlabel{tuto_truss:assembling-the-connection-matrix-and-imposed-displacement-vector}{{1.1.4}{6}{Assembling the connection matrix and imposed displacement vector}{subsubsection*.13}{}}
\@writefile{toc}{\contentsline {subsubsection}{Resolution of the linear system}{7}{subsubsection*.14}}
\newlabel{tuto_truss:resolution-of-the-linear-system}{{1.1.4}{7}{Resolution of the linear system}{subsubsection*.14}{}}
\@writefile{toc}{\contentsline {subsection}{\numberline {1.1.5}Post-processing and plotting the solution}{7}{subsection.1.1.5}}
\newlabel{tuto_truss:post-processing-and-plotting-the-solution}{{1.1.5}{7}{Post-processing and plotting the solution}{subsection.1.1.5}{}}
\newlabel{tuto_truss:sec-postprocess}{{1.1.5}{7}{Post-processing and plotting the solution}{subsection.1.1.5}{}}
\@writefile{toc}{\contentsline {subsubsection}{Extracting components and computing stresses}{7}{subsubsection*.15}}
\newlabel{tuto_truss:extracting-components-and-computing-stresses}{{1.1.5}{7}{Extracting components and computing stresses}{subsubsection*.15}{}}
\@writefile{toc}{\contentsline {subsubsection}{Plotting the mesh}{7}{subsubsection*.16}}
\newlabel{tuto_truss:plotting-the-mesh}{{1.1.5}{7}{Plotting the mesh}{subsubsection*.16}{}}
\@writefile{toc}{\contentsline {subsubsection}{Plotting boundary conditions and the deformed shape}{8}{subsubsection*.17}}
\newlabel{tuto_truss:plotting-boundary-conditions-and-the-deformed-shape}{{1.1.5}{8}{Plotting boundary conditions and the deformed shape}{subsubsection*.17}{}}
\@writefile{toc}{\contentsline {chapter}{\numberline {2}WomBat modules}{11}{chapter.2}}
\@writefile{lof}{\addvspace {10\p@ }}
\@writefile{lot}{\addvspace {10\p@ }}
\newlabel{index:wombat-modules}{{2}{11}{WomBat modules}{chapter.2}{}}
\@writefile{toc}{\contentsline {section}{\numberline {2.1}\sphinxstyleliteralintitle {node}}{11}{section.2.1}}
\newlabel{node:node}{{2.1}{11}{\sphinxstyleliteralintitle {node}}{section.2.1}{}}
\newlabel{node::doc}{{2.1}{11}{\sphinxstyleliteralintitle {node}}{section.2.1}{}}
\newlabel{node:module-node}{{2.1}{11}{\sphinxstyleliteralintitle {node}}{section.2.1}{}}
\newlabel{node:module-node}{{2.1}{11}{\sphinxstyleliteralintitle {node}}{section*.18}{}}
\newlabel{node:node.Node}{{2.1}{11}{\sphinxstyleliteralintitle {node}}{section*.19}{}}
\newlabel{node:node.Node._id}{{2.1}{11}{\sphinxstyleliteralintitle {node}}{section*.20}{}}
\newlabel{node:node.Node.coor}{{2.1}{11}{\sphinxstyleliteralintitle {node}}{section*.21}{}}
\newlabel{node:node.Node.__init__}{{2.1}{11}{\sphinxstyleliteralintitle {node}}{section*.22}{}}
\newlabel{node:node.Node.__module__}{{2.1}{11}{\sphinxstyleliteralintitle {node}}{section*.23}{}}
\newlabel{node:node.Node.get_dof}{{2.1}{11}{\sphinxstyleliteralintitle {node}}{section*.24}{}}
\newlabel{node:node.Node2D}{{2.1}{11}{\sphinxstyleliteralintitle {node}}{section*.25}{}}
\newlabel{node:node.Node2D.coor}{{2.1}{11}{\sphinxstyleliteralintitle {node}}{section*.26}{}}
\newlabel{node:node.Node2D.__init__}{{2.1}{11}{\sphinxstyleliteralintitle {node}}{section*.27}{}}
\newlabel{node:node.Node2D.__module__}{{2.1}{11}{\sphinxstyleliteralintitle {node}}{section*.28}{}}
\newlabel{node:node.Node2D.__str__}{{2.1}{11}{\sphinxstyleliteralintitle {node}}{section*.29}{}}
\newlabel{node:node.Node2D.copy}{{2.1}{11}{\sphinxstyleliteralintitle {node}}{section*.30}{}}
\newlabel{node:node.Node2D.get_dof}{{2.1}{11}{\sphinxstyleliteralintitle {node}}{section*.31}{}}
\gdef \LT@i {\LT@entry 
    {5}{246.8775pt}\LT@entry 
    {5}{246.8775pt}}
\newlabel{node:node.NodeGroup}{{2.1}{12}{\sphinxstyleliteralintitle {node}}{section*.32}{}}
\newlabel{node:node.NodeGroup.nb_nodes}{{2.1}{12}{\sphinxstyleliteralintitle {node}}{section*.33}{}}
\newlabel{node:node.NodeGroup.node_list}{{2.1}{12}{\sphinxstyleliteralintitle {node}}{section*.34}{}}
\newlabel{node:node.NodeGroup.coor}{{2.1}{12}{\sphinxstyleliteralintitle {node}}{section*.35}{}}
\newlabel{node:node.NodeGroup.__init__}{{2.1}{12}{\sphinxstyleliteralintitle {node}}{section*.36}{}}
\newlabel{node:node.NodeGroup.__module__}{{2.1}{12}{\sphinxstyleliteralintitle {node}}{section*.37}{}}
\newlabel{node:node.NodeGroup.add_node}{{2.1}{12}{\sphinxstyleliteralintitle {node}}{section*.38}{}}
\newlabel{node:node.NodeGroup.get_id}{{2.1}{12}{\sphinxstyleliteralintitle {node}}{section*.39}{}}
\@writefile{toc}{\contentsline {section}{\numberline {2.2}\sphinxstyleliteralintitle {element}}{12}{section.2.2}}
\newlabel{element::doc}{{2.2}{12}{\sphinxstyleliteralintitle {element}}{section.2.2}{}}
\newlabel{element:module-element}{{2.2}{12}{\sphinxstyleliteralintitle {element}}{section.2.2}{}}
\newlabel{element:element}{{2.2}{12}{\sphinxstyleliteralintitle {element}}{section.2.2}{}}
\@writefile{toc}{\contentsline {subsection}{\numberline {2.2.1}\sphinxstyleliteralintitle {bar2D}}{12}{subsection.2.2.1}}
\newlabel{element.bar2D:bar2d}{{2.2.1}{12}{\sphinxstyleliteralintitle {bar2D}}{subsection.2.2.1}{}}
\newlabel{element.bar2D::doc}{{2.2.1}{12}{\sphinxstyleliteralintitle {bar2D}}{subsection.2.2.1}{}}
\newlabel{element.bar2D:module-bar2D}{{2.2.1}{12}{\sphinxstyleliteralintitle {bar2D}}{subsection.2.2.1}{}}
\newlabel{element.bar2D:bar2D.Bar2D}{{2.2.1}{12}{\sphinxstyleliteralintitle {bar2D}}{section*.40}{}}
\newlabel{element.bar2D:bar2D.Bar2D.__init__}{{2.2.1}{13}{\sphinxstyleliteralintitle {bar2D}}{section*.41}{}}
\newlabel{element.bar2D:bar2D.Bar2D.__module__}{{2.2.1}{13}{\sphinxstyleliteralintitle {bar2D}}{section*.42}{}}
\newlabel{element.bar2D:bar2D.Bar2D.__str__}{{2.2.1}{13}{\sphinxstyleliteralintitle {bar2D}}{section*.43}{}}
\newlabel{element.bar2D:bar2D.Bar2D.barycenter}{{2.2.1}{13}{\sphinxstyleliteralintitle {bar2D}}{section*.44}{}}
\newlabel{element.bar2D:bar2D.Bar2D.deformation}{{2.2.1}{13}{\sphinxstyleliteralintitle {bar2D}}{section*.45}{}}
\newlabel{element.bar2D:bar2D.Bar2D.elementary_distributed_forces}{{2.2.1}{13}{\sphinxstyleliteralintitle {bar2D}}{section*.46}{}}
\newlabel{element.bar2D:bar2D.Bar2D.elementary_mass}{{2.2.1}{13}{\sphinxstyleliteralintitle {bar2D}}{section*.47}{}}
\newlabel{element.bar2D:bar2D.Bar2D.elementary_stiffness}{{2.2.1}{13}{\sphinxstyleliteralintitle {bar2D}}{section*.48}{}}
\newlabel{element.bar2D:bar2D.Bar2D.elementary_thermal_vector}{{2.2.1}{13}{\sphinxstyleliteralintitle {bar2D}}{section*.49}{}}
\newlabel{element.bar2D:bar2D.Bar2D.get_dof}{{2.2.1}{13}{\sphinxstyleliteralintitle {bar2D}}{section*.50}{}}
\newlabel{element.bar2D:bar2D.Bar2D.hsize}{{2.2.1}{14}{\sphinxstyleliteralintitle {bar2D}}{section*.51}{}}
\newlabel{element.bar2D:bar2D.Bar2D.internal_forces_nl}{{2.2.1}{14}{\sphinxstyleliteralintitle {bar2D}}{section*.52}{}}
\newlabel{element.bar2D:bar2D.Bar2D.measure}{{2.2.1}{14}{\sphinxstyleliteralintitle {bar2D}}{section*.53}{}}
\newlabel{element.bar2D:bar2D.Bar2D.node_coor}{{2.2.1}{14}{\sphinxstyleliteralintitle {bar2D}}{section*.54}{}}
\newlabel{element.bar2D:bar2D.Bar2D.rotation_matrix}{{2.2.1}{14}{\sphinxstyleliteralintitle {bar2D}}{section*.55}{}}
\newlabel{element.bar2D:bar2D.Bar2D.stresses}{{2.2.1}{14}{\sphinxstyleliteralintitle {bar2D}}{section*.56}{}}
\@writefile{toc}{\contentsline {subsection}{\numberline {2.2.2}\sphinxstyleliteralintitle {beam2D}}{14}{subsection.2.2.2}}
\newlabel{element.beam2D::doc}{{2.2.2}{14}{\sphinxstyleliteralintitle {beam2D}}{subsection.2.2.2}{}}
\newlabel{element.beam2D:beam2d}{{2.2.2}{14}{\sphinxstyleliteralintitle {beam2D}}{subsection.2.2.2}{}}
\newlabel{element.beam2D:module-beam2D}{{2.2.2}{14}{\sphinxstyleliteralintitle {beam2D}}{subsection.2.2.2}{}}
\newlabel{element.beam2D:beam2D.Beam2D}{{2.2.2}{14}{\sphinxstyleliteralintitle {beam2D}}{section*.57}{}}
\newlabel{element.beam2D:beam2D.Beam2D.__init__}{{2.2.2}{15}{\sphinxstyleliteralintitle {beam2D}}{section*.58}{}}
\newlabel{element.beam2D:beam2D.Beam2D.__module__}{{2.2.2}{15}{\sphinxstyleliteralintitle {beam2D}}{section*.59}{}}
\newlabel{element.beam2D:beam2D.Beam2D.__str__}{{2.2.2}{15}{\sphinxstyleliteralintitle {beam2D}}{section*.60}{}}
\newlabel{element.beam2D:beam2D.Beam2D.barycenter}{{2.2.2}{15}{\sphinxstyleliteralintitle {beam2D}}{section*.61}{}}
\newlabel{element.beam2D:beam2D.Beam2D.compute_Be_matrix}{{2.2.2}{15}{\sphinxstyleliteralintitle {beam2D}}{section*.62}{}}
\newlabel{element.beam2D:beam2D.Beam2D.deformation}{{2.2.2}{15}{\sphinxstyleliteralintitle {beam2D}}{section*.63}{}}
\newlabel{element.beam2D:beam2D.Beam2D.elementary_distributed_forces}{{2.2.2}{15}{\sphinxstyleliteralintitle {beam2D}}{section*.64}{}}
\newlabel{element.beam2D:beam2D.Beam2D.elementary_geometric_stiffness}{{2.2.2}{15}{\sphinxstyleliteralintitle {beam2D}}{section*.65}{}}
\newlabel{element.beam2D:beam2D.Beam2D.elementary_mass}{{2.2.2}{15}{\sphinxstyleliteralintitle {beam2D}}{section*.66}{}}
\newlabel{element.beam2D:beam2D.Beam2D.elementary_stiffness}{{2.2.2}{16}{\sphinxstyleliteralintitle {beam2D}}{section*.67}{}}
\newlabel{element.beam2D:beam2D.Beam2D.elementary_thermal_vector}{{2.2.2}{16}{\sphinxstyleliteralintitle {beam2D}}{section*.68}{}}
\newlabel{element.beam2D:beam2D.Beam2D.get_dof}{{2.2.2}{16}{\sphinxstyleliteralintitle {beam2D}}{section*.69}{}}
\newlabel{element.beam2D:beam2D.Beam2D.hsize}{{2.2.2}{16}{\sphinxstyleliteralintitle {beam2D}}{section*.70}{}}
\newlabel{element.beam2D:beam2D.Beam2D.measure}{{2.2.2}{16}{\sphinxstyleliteralintitle {beam2D}}{section*.71}{}}
\newlabel{element.beam2D:beam2D.Beam2D.node_coor}{{2.2.2}{16}{\sphinxstyleliteralintitle {beam2D}}{section*.72}{}}
\newlabel{element.beam2D:beam2D.Beam2D.rotation_matrix}{{2.2.2}{16}{\sphinxstyleliteralintitle {beam2D}}{section*.73}{}}
\newlabel{element.beam2D:beam2D.Beam2D.shape_functions}{{2.2.2}{16}{\sphinxstyleliteralintitle {beam2D}}{section*.74}{}}
\newlabel{element.beam2D:beam2D.Beam2D.stresses}{{2.2.2}{16}{\sphinxstyleliteralintitle {beam2D}}{section*.75}{}}
\@writefile{toc}{\contentsline {subsection}{\numberline {2.2.3}\sphinxstyleliteralintitle {solidT3}}{16}{subsection.2.2.3}}
\newlabel{element.solidT3::doc}{{2.2.3}{16}{\sphinxstyleliteralintitle {solidT3}}{subsection.2.2.3}{}}
\newlabel{element.solidT3:solidt3}{{2.2.3}{16}{\sphinxstyleliteralintitle {solidT3}}{subsection.2.2.3}{}}
\newlabel{element.solidT3:module-solidT3}{{2.2.3}{16}{\sphinxstyleliteralintitle {solidT3}}{subsection.2.2.3}{}}
\newlabel{element.solidT3:solidT3.SolidT3}{{2.2.3}{16}{\sphinxstyleliteralintitle {solidT3}}{section*.76}{}}
\newlabel{element.solidT3:solidT3.SolidT3.__init__}{{2.2.3}{16}{\sphinxstyleliteralintitle {solidT3}}{section*.77}{}}
\newlabel{element.solidT3:solidT3.SolidT3.__module__}{{2.2.3}{16}{\sphinxstyleliteralintitle {solidT3}}{section*.78}{}}
\newlabel{element.solidT3:solidT3.SolidT3.__str__}{{2.2.3}{16}{\sphinxstyleliteralintitle {solidT3}}{section*.79}{}}
\newlabel{element.solidT3:solidT3.SolidT3.barycenter}{{2.2.3}{17}{\sphinxstyleliteralintitle {solidT3}}{section*.80}{}}
\newlabel{element.solidT3:solidT3.SolidT3.compute_Be_matrix}{{2.2.3}{17}{\sphinxstyleliteralintitle {solidT3}}{section*.81}{}}
\newlabel{element.solidT3:solidT3.SolidT3.deformation}{{2.2.3}{17}{\sphinxstyleliteralintitle {solidT3}}{section*.82}{}}
\newlabel{element.solidT3:solidT3.SolidT3.elementary_distributed_forces}{{2.2.3}{17}{\sphinxstyleliteralintitle {solidT3}}{section*.83}{}}
\newlabel{element.solidT3:solidT3.SolidT3.elementary_mass}{{2.2.3}{17}{\sphinxstyleliteralintitle {solidT3}}{section*.84}{}}
\newlabel{element.solidT3:solidT3.SolidT3.elementary_stiffness}{{2.2.3}{17}{\sphinxstyleliteralintitle {solidT3}}{section*.85}{}}
\newlabel{element.solidT3:solidT3.SolidT3.elementary_thermal_vector}{{2.2.3}{17}{\sphinxstyleliteralintitle {solidT3}}{section*.86}{}}
\newlabel{element.solidT3:solidT3.SolidT3.get_dof}{{2.2.3}{17}{\sphinxstyleliteralintitle {solidT3}}{section*.87}{}}
\newlabel{element.solidT3:solidT3.SolidT3.hsize}{{2.2.3}{17}{\sphinxstyleliteralintitle {solidT3}}{section*.88}{}}
\newlabel{element.solidT3:solidT3.SolidT3.internal_forces_nl}{{2.2.3}{17}{\sphinxstyleliteralintitle {solidT3}}{section*.89}{}}
\newlabel{element.solidT3:solidT3.SolidT3.jacobian}{{2.2.3}{17}{\sphinxstyleliteralintitle {solidT3}}{section*.90}{}}
\newlabel{element.solidT3:solidT3.SolidT3.measure}{{2.2.3}{17}{\sphinxstyleliteralintitle {solidT3}}{section*.91}{}}
\newlabel{element.solidT3:solidT3.SolidT3.node_coor}{{2.2.3}{17}{\sphinxstyleliteralintitle {solidT3}}{section*.92}{}}
\newlabel{element.solidT3:solidT3.SolidT3.shape_functions}{{2.2.3}{17}{\sphinxstyleliteralintitle {solidT3}}{section*.93}{}}
\newlabel{element.solidT3:solidT3.SolidT3.stresses}{{2.2.3}{17}{\sphinxstyleliteralintitle {solidT3}}{section*.94}{}}
\@writefile{toc}{\contentsline {subsection}{\numberline {2.2.4}\sphinxstyleliteralintitle {solidT6}}{17}{subsection.2.2.4}}
\newlabel{element.solidT6:solidt6}{{2.2.4}{17}{\sphinxstyleliteralintitle {solidT6}}{subsection.2.2.4}{}}
\newlabel{element.solidT6:module-solidT6}{{2.2.4}{17}{\sphinxstyleliteralintitle {solidT6}}{subsection.2.2.4}{}}
\newlabel{element.solidT6::doc}{{2.2.4}{17}{\sphinxstyleliteralintitle {solidT6}}{subsection.2.2.4}{}}
\newlabel{element.solidT6:solidT6.SolidT6}{{2.2.4}{17}{\sphinxstyleliteralintitle {solidT6}}{section*.95}{}}
\newlabel{element.solidT6:solidT6.SolidT6.__init__}{{2.2.4}{17}{\sphinxstyleliteralintitle {solidT6}}{section*.96}{}}
\newlabel{element.solidT6:solidT6.SolidT6.__module__}{{2.2.4}{17}{\sphinxstyleliteralintitle {solidT6}}{section*.97}{}}
\newlabel{element.solidT6:solidT6.SolidT6.__str__}{{2.2.4}{17}{\sphinxstyleliteralintitle {solidT6}}{section*.98}{}}
\newlabel{element.solidT6:solidT6.SolidT6.barycenter}{{2.2.4}{17}{\sphinxstyleliteralintitle {solidT6}}{section*.99}{}}
\newlabel{element.solidT6:solidT6.SolidT6.compute_Be_matrix}{{2.2.4}{17}{\sphinxstyleliteralintitle {solidT6}}{section*.100}{}}
\newlabel{element.solidT6:solidT6.SolidT6.deformation}{{2.2.4}{17}{\sphinxstyleliteralintitle {solidT6}}{section*.101}{}}
\newlabel{element.solidT6:solidT6.SolidT6.elementary_distributed_forces}{{2.2.4}{17}{\sphinxstyleliteralintitle {solidT6}}{section*.102}{}}
\newlabel{element.solidT6:solidT6.SolidT6.elementary_mass}{{2.2.4}{17}{\sphinxstyleliteralintitle {solidT6}}{section*.103}{}}
\newlabel{element.solidT6:solidT6.SolidT6.elementary_stiffness}{{2.2.4}{18}{\sphinxstyleliteralintitle {solidT6}}{section*.104}{}}
\newlabel{element.solidT6:solidT6.SolidT6.elementary_thermal_vector}{{2.2.4}{18}{\sphinxstyleliteralintitle {solidT6}}{section*.105}{}}
\newlabel{element.solidT6:solidT6.SolidT6.gauss_quadrature}{{2.2.4}{18}{\sphinxstyleliteralintitle {solidT6}}{section*.106}{}}
\newlabel{element.solidT6:solidT6.SolidT6.get_dof}{{2.2.4}{18}{\sphinxstyleliteralintitle {solidT6}}{section*.107}{}}
\newlabel{element.solidT6:solidT6.SolidT6.hsize}{{2.2.4}{18}{\sphinxstyleliteralintitle {solidT6}}{section*.108}{}}
\newlabel{element.solidT6:solidT6.SolidT6.jacobian}{{2.2.4}{18}{\sphinxstyleliteralintitle {solidT6}}{section*.109}{}}
\newlabel{element.solidT6:solidT6.SolidT6.measure}{{2.2.4}{18}{\sphinxstyleliteralintitle {solidT6}}{section*.110}{}}
\newlabel{element.solidT6:solidT6.SolidT6.node_coor}{{2.2.4}{18}{\sphinxstyleliteralintitle {solidT6}}{section*.111}{}}
\newlabel{element.solidT6:solidT6.SolidT6.shape_functions}{{2.2.4}{18}{\sphinxstyleliteralintitle {solidT6}}{section*.112}{}}
\newlabel{element.solidT6:solidT6.SolidT6.stresses}{{2.2.4}{18}{\sphinxstyleliteralintitle {solidT6}}{section*.113}{}}
\@writefile{toc}{\contentsline {section}{\numberline {2.3}\sphinxstyleliteralintitle {mesh}}{18}{section.2.3}}
\newlabel{mesh:mesh}{{2.3}{18}{\sphinxstyleliteralintitle {mesh}}{section.2.3}{}}
\newlabel{mesh::doc}{{2.3}{18}{\sphinxstyleliteralintitle {mesh}}{section.2.3}{}}
\newlabel{mesh:module-mesh}{{2.3}{18}{\sphinxstyleliteralintitle {mesh}}{section.2.3}{}}
\newlabel{mesh:mesh.Mesh}{{2.3}{18}{\sphinxstyleliteralintitle {mesh}}{section*.114}{}}
\newlabel{mesh:mesh.Mesh.el_list}{{2.3}{18}{\sphinxstyleliteralintitle {mesh}}{section*.115}{}}
\newlabel{mesh:mesh.Mesh.nodes}{{2.3}{18}{\sphinxstyleliteralintitle {mesh}}{section*.116}{}}
\newlabel{mesh:mesh.Mesh.Nno}{{2.3}{18}{\sphinxstyleliteralintitle {mesh}}{section*.117}{}}
\newlabel{mesh:mesh.Mesh.Nel}{{2.3}{18}{\sphinxstyleliteralintitle {mesh}}{section*.118}{}}
\newlabel{mesh:mesh.Mesh.connec}{{2.3}{18}{\sphinxstyleliteralintitle {mesh}}{section*.119}{}}
\newlabel{mesh:mesh.Mesh.coor}{{2.3}{18}{\sphinxstyleliteralintitle {mesh}}{section*.120}{}}
\newlabel{mesh:mesh.Mesh.__init__}{{2.3}{19}{\sphinxstyleliteralintitle {mesh}}{section*.121}{}}
\newlabel{mesh:mesh.Mesh.__module__}{{2.3}{19}{\sphinxstyleliteralintitle {mesh}}{section*.122}{}}
\newlabel{mesh:mesh.Mesh.__str__}{{2.3}{19}{\sphinxstyleliteralintitle {mesh}}{section*.123}{}}
\newlabel{mesh:mesh.Mesh.add_element}{{2.3}{19}{\sphinxstyleliteralintitle {mesh}}{section*.124}{}}
\newlabel{mesh:mesh.Mesh.get_elem_from_tag}{{2.3}{19}{\sphinxstyleliteralintitle {mesh}}{section*.125}{}}
\newlabel{mesh:mesh.Mesh.get_nodes}{{2.3}{19}{\sphinxstyleliteralintitle {mesh}}{section*.126}{}}
\newlabel{mesh:mesh.Mesh.measure}{{2.3}{19}{\sphinxstyleliteralintitle {mesh}}{section*.127}{}}
\newlabel{mesh:mesh.Mesh.print_info}{{2.3}{19}{\sphinxstyleliteralintitle {mesh}}{section*.128}{}}
\@writefile{toc}{\contentsline {section}{\numberline {2.4}\sphinxstyleliteralintitle {geometric\_caract}}{19}{section.2.4}}
\newlabel{geometric_caract:geometric-caract}{{2.4}{19}{\sphinxstyleliteralintitle {geometric\_caract}}{section.2.4}{}}
\newlabel{geometric_caract::doc}{{2.4}{19}{\sphinxstyleliteralintitle {geometric\_caract}}{section.2.4}{}}
\newlabel{geometric_caract:module-geometric_caract}{{2.4}{19}{\sphinxstyleliteralintitle {geometric\_caract}}{section.2.4}{}}
\newlabel{geometric_caract:geometric_caract.BeamSection}{{2.4}{19}{\sphinxstyleliteralintitle {geometric\_caract}}{section*.129}{}}
\newlabel{geometric_caract:geometric_caract.BeamSection.area}{{2.4}{19}{\sphinxstyleliteralintitle {geometric\_caract}}{section*.130}{}}
\newlabel{geometric_caract:geometric_caract.BeamSection.inertia}{{2.4}{19}{\sphinxstyleliteralintitle {geometric\_caract}}{section*.131}{}}
\newlabel{geometric_caract:geometric_caract.BeamSection.__init__}{{2.4}{19}{\sphinxstyleliteralintitle {geometric\_caract}}{section*.132}{}}
\newlabel{geometric_caract:geometric_caract.BeamSection.__module__}{{2.4}{19}{\sphinxstyleliteralintitle {geometric\_caract}}{section*.133}{}}
\newlabel{geometric_caract:geometric_caract.BeamSection.rect}{{2.4}{19}{\sphinxstyleliteralintitle {geometric\_caract}}{section*.134}{}}
\newlabel{geometric_caract:geometric_caract.Section}{{2.4}{19}{\sphinxstyleliteralintitle {geometric\_caract}}{section*.135}{}}
\newlabel{geometric_caract:geometric_caract.Section.__module__}{{2.4}{19}{\sphinxstyleliteralintitle {geometric\_caract}}{section*.136}{}}
\@writefile{toc}{\contentsline {section}{\numberline {2.5}\sphinxstyleliteralintitle {material}}{20}{section.2.5}}
\newlabel{material:material}{{2.5}{20}{\sphinxstyleliteralintitle {material}}{section.2.5}{}}
\newlabel{material::doc}{{2.5}{20}{\sphinxstyleliteralintitle {material}}{section.2.5}{}}
\newlabel{material:module-material}{{2.5}{20}{\sphinxstyleliteralintitle {material}}{section.2.5}{}}
\newlabel{material:material.Cable}{{2.5}{20}{\sphinxstyleliteralintitle {material}}{section*.137}{}}
\newlabel{material:material.Cable.C_matrix}{{2.5}{20}{\sphinxstyleliteralintitle {material}}{section*.138}{}}
\newlabel{material:material.Cable.__init__}{{2.5}{20}{\sphinxstyleliteralintitle {material}}{section*.139}{}}
\newlabel{material:material.Cable.__module__}{{2.5}{20}{\sphinxstyleliteralintitle {material}}{section*.140}{}}
\newlabel{material:material.Cable.compute_lame_coeff}{{2.5}{20}{\sphinxstyleliteralintitle {material}}{section*.141}{}}
\newlabel{material:material.Cable.constitutive_relation}{{2.5}{20}{\sphinxstyleliteralintitle {material}}{section*.142}{}}
\newlabel{material:material.Cable.from_lame}{{2.5}{20}{\sphinxstyleliteralintitle {material}}{section*.143}{}}
\newlabel{material:material.ElastoPlastic}{{2.5}{20}{\sphinxstyleliteralintitle {material}}{section*.144}{}}
\newlabel{material:material.ElastoPlastic.C_matrix}{{2.5}{20}{\sphinxstyleliteralintitle {material}}{section*.145}{}}
\newlabel{material:material.ElastoPlastic.__init__}{{2.5}{20}{\sphinxstyleliteralintitle {material}}{section*.146}{}}
\newlabel{material:material.ElastoPlastic.__module__}{{2.5}{20}{\sphinxstyleliteralintitle {material}}{section*.147}{}}
\newlabel{material:material.ElastoPlastic.compute_lame_coeff}{{2.5}{20}{\sphinxstyleliteralintitle {material}}{section*.148}{}}
\newlabel{material:material.ElastoPlastic.constitutive_relation}{{2.5}{20}{\sphinxstyleliteralintitle {material}}{section*.149}{}}
\newlabel{material:material.ElastoPlastic.from_lame}{{2.5}{20}{\sphinxstyleliteralintitle {material}}{section*.150}{}}
\newlabel{material:material.ElastoPlastic_bar}{{2.5}{20}{\sphinxstyleliteralintitle {material}}{section*.151}{}}
\newlabel{material:material.ElastoPlastic_bar.C_matrix}{{2.5}{20}{\sphinxstyleliteralintitle {material}}{section*.152}{}}
\newlabel{material:material.ElastoPlastic_bar.__init__}{{2.5}{20}{\sphinxstyleliteralintitle {material}}{section*.153}{}}
\newlabel{material:material.ElastoPlastic_bar.__module__}{{2.5}{20}{\sphinxstyleliteralintitle {material}}{section*.154}{}}
\newlabel{material:material.ElastoPlastic_bar.compute_lame_coeff}{{2.5}{20}{\sphinxstyleliteralintitle {material}}{section*.155}{}}
\newlabel{material:material.ElastoPlastic_bar.constitutive_relation}{{2.5}{20}{\sphinxstyleliteralintitle {material}}{section*.156}{}}
\newlabel{material:material.ElastoPlastic_bar.from_lame}{{2.5}{20}{\sphinxstyleliteralintitle {material}}{section*.157}{}}
\newlabel{material:material.LinearElastic}{{2.5}{20}{\sphinxstyleliteralintitle {material}}{section*.158}{}}
\newlabel{material:material.LinearElastic.Young_modulus}{{2.5}{21}{\sphinxstyleliteralintitle {material}}{section*.159}{}}
\newlabel{material:material.LinearElastic.Poisson_coeff}{{2.5}{21}{\sphinxstyleliteralintitle {material}}{section*.160}{}}
\newlabel{material:material.LinearElastic.rho}{{2.5}{21}{\sphinxstyleliteralintitle {material}}{section*.161}{}}
\newlabel{material:material.LinearElastic.model}{{2.5}{21}{\sphinxstyleliteralintitle {material}}{section*.162}{}}
\newlabel{material:material.LinearElastic.C}{{2.5}{21}{\sphinxstyleliteralintitle {material}}{section*.163}{}}
\newlabel{material:material.LinearElastic.compute_lame_coeff}{{2.5}{21}{\sphinxstyleliteralintitle {material}}{section*.164}{}}
\newlabel{material:material.LinearElastic.C_matrix}{{2.5}{21}{\sphinxstyleliteralintitle {material}}{section*.165}{}}
\newlabel{material:material.LinearElastic.__init__}{{2.5}{21}{\sphinxstyleliteralintitle {material}}{section*.166}{}}
\newlabel{material:material.LinearElastic.__module__}{{2.5}{21}{\sphinxstyleliteralintitle {material}}{section*.167}{}}
\newlabel{material:material.LinearElastic.from_lame}{{2.5}{21}{\sphinxstyleliteralintitle {material}}{section*.168}{}}
\newlabel{material:material.Material}{{2.5}{21}{\sphinxstyleliteralintitle {material}}{section*.169}{}}
\newlabel{material:material.Material.__init__}{{2.5}{21}{\sphinxstyleliteralintitle {material}}{section*.170}{}}
\newlabel{material:material.Material.__module__}{{2.5}{21}{\sphinxstyleliteralintitle {material}}{section*.171}{}}
\newlabel{material:material.vonMises_2D}{{2.5}{21}{\sphinxstyleliteralintitle {material}}{section*.172}{}}
\newlabel{material:material.vonMises_2D.C_matrix}{{2.5}{21}{\sphinxstyleliteralintitle {material}}{section*.173}{}}
\newlabel{material:material.vonMises_2D.__init__}{{2.5}{21}{\sphinxstyleliteralintitle {material}}{section*.174}{}}
\newlabel{material:material.vonMises_2D.__module__}{{2.5}{21}{\sphinxstyleliteralintitle {material}}{section*.175}{}}
\newlabel{material:material.vonMises_2D.compute_lame_coeff}{{2.5}{21}{\sphinxstyleliteralintitle {material}}{section*.176}{}}
\newlabel{material:material.vonMises_2D.constitutive_relation}{{2.5}{21}{\sphinxstyleliteralintitle {material}}{section*.177}{}}
\newlabel{material:material.vonMises_2D.from_lame}{{2.5}{21}{\sphinxstyleliteralintitle {material}}{section*.178}{}}
\@writefile{toc}{\contentsline {section}{\numberline {2.6}\sphinxstyleliteralintitle {model}}{21}{section.2.6}}
\newlabel{model:module-model}{{2.6}{21}{\sphinxstyleliteralintitle {model}}{section.2.6}{}}
\newlabel{model:model}{{2.6}{21}{\sphinxstyleliteralintitle {model}}{section.2.6}{}}
\newlabel{model::doc}{{2.6}{21}{\sphinxstyleliteralintitle {model}}{section.2.6}{}}
\newlabel{model:model.Model}{{2.6}{22}{\sphinxstyleliteralintitle {model}}{section*.179}{}}
\newlabel{model:model.Model.mesh}{{2.6}{22}{\sphinxstyleliteralintitle {model}}{section*.180}{}}
\newlabel{model:model.Model.mat}{{2.6}{22}{\sphinxstyleliteralintitle {model}}{section*.181}{}}
\newlabel{model:model.Model.sect}{{2.6}{22}{\sphinxstyleliteralintitle {model}}{section*.182}{}}
\newlabel{model:model.Model.__init__}{{2.6}{22}{\sphinxstyleliteralintitle {model}}{section*.183}{}}
\newlabel{model:model.Model.__module__}{{2.6}{22}{\sphinxstyleliteralintitle {model}}{section*.184}{}}
\newlabel{model:model.Model.affect_property}{{2.6}{22}{\sphinxstyleliteralintitle {model}}{section*.185}{}}
\@writefile{toc}{\contentsline {section}{\numberline {2.7}\sphinxstyleliteralintitle {connections}}{22}{section.2.7}}
\newlabel{connections:connections}{{2.7}{22}{\sphinxstyleliteralintitle {connections}}{section.2.7}{}}
\newlabel{connections::doc}{{2.7}{22}{\sphinxstyleliteralintitle {connections}}{section.2.7}{}}
\newlabel{connections:module-connections}{{2.7}{22}{\sphinxstyleliteralintitle {connections}}{section.2.7}{}}
\newlabel{connections:connections.Connections}{{2.7}{22}{\sphinxstyleliteralintitle {connections}}{section*.186}{}}
\newlabel{connections:connections.Connections.nb_relations}{{2.7}{22}{\sphinxstyleliteralintitle {connections}}{section*.187}{}}
\newlabel{connections:connections.Connections.master_list}{{2.7}{22}{\sphinxstyleliteralintitle {connections}}{section*.188}{}}
\newlabel{connections:connections.Connections.slave_list}{{2.7}{22}{\sphinxstyleliteralintitle {connections}}{section*.189}{}}
\newlabel{connections:connections.Connections.components_list}{{2.7}{22}{\sphinxstyleliteralintitle {connections}}{section*.190}{}}
\newlabel{connections:connections.Connections.lin_rela_list}{{2.7}{22}{\sphinxstyleliteralintitle {connections}}{section*.191}{}}
\newlabel{connections:connections.Connections.imposed_value_list}{{2.7}{23}{\sphinxstyleliteralintitle {connections}}{section*.192}{}}
\newlabel{connections:connections.Connections.__init__}{{2.7}{23}{\sphinxstyleliteralintitle {connections}}{section*.193}{}}
\newlabel{connections:connections.Connections.__module__}{{2.7}{23}{\sphinxstyleliteralintitle {connections}}{section*.194}{}}
\newlabel{connections:connections.Connections.add_imposed_displ}{{2.7}{23}{\sphinxstyleliteralintitle {connections}}{section*.195}{}}
\newlabel{connections:connections.Connections.add_relation}{{2.7}{23}{\sphinxstyleliteralintitle {connections}}{section*.196}{}}
\@writefile{toc}{\contentsline {section}{\numberline {2.8}\sphinxstyleliteralintitle {forces}}{24}{section.2.8}}
\newlabel{forces:module-forces}{{2.8}{24}{\sphinxstyleliteralintitle {forces}}{section.2.8}{}}
\newlabel{forces::doc}{{2.8}{24}{\sphinxstyleliteralintitle {forces}}{section.2.8}{}}
\newlabel{forces:forces}{{2.8}{24}{\sphinxstyleliteralintitle {forces}}{section.2.8}{}}
\newlabel{forces:forces.ExtForce}{{2.8}{24}{\sphinxstyleliteralintitle {forces}}{section*.197}{}}
\newlabel{forces:forces.ExtForce.node_list}{{2.8}{24}{\sphinxstyleliteralintitle {forces}}{section*.198}{}}
\newlabel{forces:forces.ExtForce.Fx_n}{{2.8}{24}{\sphinxstyleliteralintitle {forces}}{section*.199}{}}
\newlabel{forces:forces.ExtForce.Fy_n}{{2.8}{24}{\sphinxstyleliteralintitle {forces}}{section*.200}{}}
\newlabel{forces:forces.ExtForce.Cz_n}{{2.8}{24}{\sphinxstyleliteralintitle {forces}}{section*.201}{}}
\newlabel{forces:forces.ExtForce.el_list}{{2.8}{24}{\sphinxstyleliteralintitle {forces}}{section*.202}{}}
\newlabel{forces:forces.ExtForce.fx_e}{{2.8}{24}{\sphinxstyleliteralintitle {forces}}{section*.203}{}}
\newlabel{forces:forces.ExtForce.fy_e}{{2.8}{24}{\sphinxstyleliteralintitle {forces}}{section*.204}{}}
\newlabel{forces:forces.ExtForce.cz_e}{{2.8}{24}{\sphinxstyleliteralintitle {forces}}{section*.205}{}}
\newlabel{forces:forces.ExtForce.__init__}{{2.8}{24}{\sphinxstyleliteralintitle {forces}}{section*.206}{}}
\newlabel{forces:forces.ExtForce.__module__}{{2.8}{24}{\sphinxstyleliteralintitle {forces}}{section*.207}{}}
\newlabel{forces:forces.ExtForce.add_concentrated_forces}{{2.8}{24}{\sphinxstyleliteralintitle {forces}}{section*.208}{}}
\newlabel{forces:forces.ExtForce.add_distributed_forces}{{2.8}{24}{\sphinxstyleliteralintitle {forces}}{section*.209}{}}
\@writefile{toc}{\contentsline {section}{\numberline {2.9}\sphinxstyleliteralintitle {finite\_elements}}{25}{section.2.9}}
\newlabel{finite_elements:module-finite_elements}{{2.9}{25}{\sphinxstyleliteralintitle {finite\_elements}}{section.2.9}{}}
\newlabel{finite_elements::doc}{{2.9}{25}{\sphinxstyleliteralintitle {finite\_elements}}{section.2.9}{}}
\newlabel{finite_elements:finite-elements}{{2.9}{25}{\sphinxstyleliteralintitle {finite\_elements}}{section.2.9}{}}
\newlabel{finite_elements:finite_elements.assembl_connections}{{2.9}{25}{\sphinxstyleliteralintitle {finite\_elements}}{section*.210}{}}
\newlabel{finite_elements:finite_elements.assembl_external_forces}{{2.9}{25}{\sphinxstyleliteralintitle {finite\_elements}}{section*.211}{}}
\newlabel{finite_elements:finite_elements.assembl_stiffness_matrix}{{2.9}{25}{\sphinxstyleliteralintitle {finite\_elements}}{section*.212}{}}
\newlabel{finite_elements:finite_elements.assembl_thermal_strains}{{2.9}{25}{\sphinxstyleliteralintitle {finite\_elements}}{section*.213}{}}
\gdef \LT@ii {\LT@entry 
    {1}{0.0pt}\LT@entry 
    {3}{12.00002pt}}
\newlabel{finite_elements:finite_elements.solve}{{2.9}{26}{\sphinxstyleliteralintitle {finite\_elements}}{section*.214}{}}
\newlabel{finite_elements:finite_elements.stresses}{{2.9}{26}{\sphinxstyleliteralintitle {finite\_elements}}{section*.215}{}}
\@writefile{toc}{\contentsline {section}{\numberline {2.10}\sphinxstyleliteralintitle {finite\_elements\_sparse}}{26}{section.2.10}}
\newlabel{finite_elements_sparse:finite-elements-sparse}{{2.10}{26}{\sphinxstyleliteralintitle {finite\_elements\_sparse}}{section.2.10}{}}
\newlabel{finite_elements_sparse::doc}{{2.10}{26}{\sphinxstyleliteralintitle {finite\_elements\_sparse}}{section.2.10}{}}
\newlabel{finite_elements_sparse:module-finite_elements_sparse}{{2.10}{26}{\sphinxstyleliteralintitle {finite\_elements\_sparse}}{section.2.10}{}}
\newlabel{finite_elements_sparse:finite_elements_sparse.assembl_connections}{{2.10}{26}{\sphinxstyleliteralintitle {finite\_elements\_sparse}}{section*.216}{}}
\newlabel{finite_elements_sparse:finite_elements_sparse.assembl_external_forces}{{2.10}{26}{\sphinxstyleliteralintitle {finite\_elements\_sparse}}{section*.217}{}}
\newlabel{finite_elements_sparse:finite_elements_sparse.assembl_geometric_stiffness_matrix}{{2.10}{26}{\sphinxstyleliteralintitle {finite\_elements\_sparse}}{section*.218}{}}
\newlabel{finite_elements_sparse:finite_elements_sparse.assembl_mass_matrix}{{2.10}{26}{\sphinxstyleliteralintitle {finite\_elements\_sparse}}{section*.219}{}}
\newlabel{finite_elements_sparse:finite_elements_sparse.assembl_stiffness_matrix}{{2.10}{26}{\sphinxstyleliteralintitle {finite\_elements\_sparse}}{section*.220}{}}
\newlabel{finite_elements_sparse:finite_elements_sparse.assembl_thermal_strains}{{2.10}{26}{\sphinxstyleliteralintitle {finite\_elements\_sparse}}{section*.221}{}}
\newlabel{finite_elements_sparse:finite_elements_sparse.compute_Rayleigh_damping}{{2.10}{26}{\sphinxstyleliteralintitle {finite\_elements\_sparse}}{section*.222}{}}
\newlabel{finite_elements_sparse:finite_elements_sparse.eigenmodes}{{2.10}{26}{\sphinxstyleliteralintitle {finite\_elements\_sparse}}{section*.223}{}}
\newlabel{finite_elements_sparse:finite_elements_sparse.internal_forces}{{2.10}{27}{\sphinxstyleliteralintitle {finite\_elements\_sparse}}{section*.224}{}}
\newlabel{finite_elements_sparse:finite_elements_sparse.null}{{2.10}{27}{\sphinxstyleliteralintitle {finite\_elements\_sparse}}{section*.225}{}}
\newlabel{finite_elements_sparse:finite_elements_sparse.solve}{{2.10}{27}{\sphinxstyleliteralintitle {finite\_elements\_sparse}}{section*.226}{}}
\newlabel{finite_elements_sparse:finite_elements_sparse.stresses}{{2.10}{27}{\sphinxstyleliteralintitle {finite\_elements\_sparse}}{section*.227}{}}
\@writefile{toc}{\contentsline {section}{\numberline {2.11}\sphinxstyleliteralintitle {nonlinear}}{27}{section.2.11}}
\newlabel{nonlinear:nonlinear}{{2.11}{27}{\sphinxstyleliteralintitle {nonlinear}}{section.2.11}{}}
\newlabel{nonlinear::doc}{{2.11}{27}{\sphinxstyleliteralintitle {nonlinear}}{section.2.11}{}}
\newlabel{nonlinear:module-nonlinear}{{2.11}{27}{\sphinxstyleliteralintitle {nonlinear}}{section.2.11}{}}
\newlabel{nonlinear:nonlinear.nonlinear_solver}{{2.11}{27}{\sphinxstyleliteralintitle {nonlinear}}{section*.228}{}}
\newlabel{nonlinear:nonlinear.solve_increment}{{2.11}{27}{\sphinxstyleliteralintitle {nonlinear}}{section*.229}{}}
\newlabel{nonlinear:nonlinear.value_at_next_step}{{2.11}{27}{\sphinxstyleliteralintitle {nonlinear}}{section*.230}{}}
\@writefile{toc}{\contentsline {section}{\numberline {2.12}\sphinxstyleliteralintitle {time\_integration}}{27}{section.2.12}}
\newlabel{time_integration:time-integration}{{2.12}{27}{\sphinxstyleliteralintitle {time\_integration}}{section.2.12}{}}
\newlabel{time_integration::doc}{{2.12}{27}{\sphinxstyleliteralintitle {time\_integration}}{section.2.12}{}}
\newlabel{time_integration:module-time_integration}{{2.12}{27}{\sphinxstyleliteralintitle {time\_integration}}{section.2.12}{}}
\newlabel{time_integration:time_integration.TimeIntegrator}{{2.12}{27}{\sphinxstyleliteralintitle {time\_integration}}{section*.231}{}}
\newlabel{time_integration:time_integration.TimeIntegrator.__init__}{{2.12}{27}{\sphinxstyleliteralintitle {time\_integration}}{section*.232}{}}
\newlabel{time_integration:time_integration.TimeIntegrator.__module__}{{2.12}{27}{\sphinxstyleliteralintitle {time\_integration}}{section*.233}{}}
\newlabel{time_integration:time_integration.TimeIntegrator.next_step}{{2.12}{27}{\sphinxstyleliteralintitle {time\_integration}}{section*.234}{}}
\newlabel{time_integration:time_integration.TimeIntegrator.solve_evolution}{{2.12}{27}{\sphinxstyleliteralintitle {time\_integration}}{section*.235}{}}
\newlabel{time_integration:time_integration.value_at_next_step}{{2.12}{27}{\sphinxstyleliteralintitle {time\_integration}}{section*.236}{}}
\@writefile{toc}{\contentsline {section}{\numberline {2.13}\sphinxstyleliteralintitle {post\_process}}{27}{section.2.13}}
\newlabel{post_process:post-process}{{2.13}{27}{\sphinxstyleliteralintitle {post\_process}}{section.2.13}{}}
\newlabel{post_process::doc}{{2.13}{27}{\sphinxstyleliteralintitle {post\_process}}{section.2.13}{}}
\newlabel{post_process:module-post_process}{{2.13}{27}{\sphinxstyleliteralintitle {post\_process}}{section.2.13}{}}
\newlabel{post_process:post_process.Figure}{{2.13}{27}{\sphinxstyleliteralintitle {post\_process}}{section*.237}{}}
\newlabel{post_process:post_process.Figure.__init__}{{2.13}{28}{\sphinxstyleliteralintitle {post\_process}}{section*.238}{}}
\newlabel{post_process:post_process.Figure.__module__}{{2.13}{28}{\sphinxstyleliteralintitle {post\_process}}{section*.239}{}}
\newlabel{post_process:post_process.Figure.add_subplot}{{2.13}{28}{\sphinxstyleliteralintitle {post\_process}}{section*.240}{}}
\newlabel{post_process:post_process.Figure.clear}{{2.13}{28}{\sphinxstyleliteralintitle {post\_process}}{section*.241}{}}
\newlabel{post_process:post_process.Figure.plot}{{2.13}{28}{\sphinxstyleliteralintitle {post\_process}}{section*.242}{}}
\newlabel{post_process:post_process.Figure.plot_bc}{{2.13}{28}{\sphinxstyleliteralintitle {post\_process}}{section*.243}{}}
\newlabel{post_process:post_process.Figure.plot_def}{{2.13}{28}{\sphinxstyleliteralintitle {post\_process}}{section*.244}{}}
\newlabel{post_process:post_process.Figure.plot_field}{{2.13}{28}{\sphinxstyleliteralintitle {post\_process}}{section*.245}{}}
\newlabel{post_process:post_process.Figure.plot_field_diagrams}{{2.13}{29}{\sphinxstyleliteralintitle {post\_process}}{section*.246}{}}
\newlabel{post_process:post_process.Figure.plot_loading}{{2.13}{29}{\sphinxstyleliteralintitle {post\_process}}{section*.247}{}}
\newlabel{post_process:post_process.Figure.plot_reactions}{{2.13}{29}{\sphinxstyleliteralintitle {post\_process}}{section*.248}{}}
\newlabel{post_process:post_process.Figure.show}{{2.13}{29}{\sphinxstyleliteralintitle {post\_process}}{section*.249}{}}
\newlabel{post_process:post_process.axes_rescale}{{2.13}{29}{\sphinxstyleliteralintitle {post\_process}}{section*.250}{}}
\newlabel{post_process:post_process.lin_shape_functions}{{2.13}{29}{\sphinxstyleliteralintitle {post\_process}}{section*.251}{}}
\@writefile{toc}{\contentsline {section}{\numberline {2.14}\sphinxstyleliteralintitle {input}}{29}{section.2.14}}
\newlabel{input:input}{{2.14}{29}{\sphinxstyleliteralintitle {input}}{section.2.14}{}}
\newlabel{input:module-input}{{2.14}{29}{\sphinxstyleliteralintitle {input}}{section.2.14}{}}
\newlabel{input::doc}{{2.14}{29}{\sphinxstyleliteralintitle {input}}{section.2.14}{}}
\newlabel{input:input.call_gmsh}{{2.14}{29}{\sphinxstyleliteralintitle {input}}{section*.252}{}}
\newlabel{input:input.read_msh}{{2.14}{30}{\sphinxstyleliteralintitle {input}}{section*.253}{}}
\@writefile{toc}{\contentsline {section}{\numberline {2.15}\sphinxstyleliteralintitle {utils}}{30}{section.2.15}}
\newlabel{utils:module-utils}{{2.15}{30}{\sphinxstyleliteralintitle {utils}}{section.2.15}{}}
\newlabel{utils:utils}{{2.15}{30}{\sphinxstyleliteralintitle {utils}}{section.2.15}{}}
\newlabel{utils::doc}{{2.15}{30}{\sphinxstyleliteralintitle {utils}}{section.2.15}{}}
\newlabel{utils:utils.append_component}{{2.15}{30}{\sphinxstyleliteralintitle {utils}}{section*.254}{}}
\@writefile{toc}{\contentsline {chapter}{\numberline {3}Indices and tables}{31}{chapter.3}}
\@writefile{lof}{\addvspace {10\p@ }}
\@writefile{lot}{\addvspace {10\p@ }}
\newlabel{index:indices-and-tables}{{3}{31}{Indices and tables}{chapter.3}{}}
\@writefile{toc}{\contentsline {chapter}{Python Module Index}{33}{section*.255}}
